---
http_interactions:
- request:
    method: get
    uri: http://api.themoviedb.org/3/movie/changes?api_key=c29379565234e20d7cbf4f2e835c3e41&language=en
    body:
      encoding: US-ASCII
      string: ''
    headers:
      Accept:
      - application/json
      Content-Type:
      - application/json
  response:
    status:
      code: 200
      message: OK
    headers:
      Access-Control-Allow-Origin:
      - "*"
      Cache-Control:
      - public, max-age=600
      Content-Type:
      - application/json;charset=utf-8
      Date:
      - Fri, 26 Jun 2015 15:17:08 GMT
      Etag:
      - '"2e89f29c731e09c3f082429cee288b46"'
      Server:
      - openresty
      Status:
      - 200 OK
      Vary:
      - Accept-Encoding
      X-Memc:
      - MISS, STORE
      X-Memc-Age:
      - '0'
      X-Memc-Expires:
      - '600'
      X-Memc-Key:
      - 2f7ecce3c7b5eae3002bf7f025b5b504
      X-Ratelimit-Limit:
      - '40'
      X-Ratelimit-Remaining:
      - '37'
      X-Ratelimit-Reset:
      - '1435331837'
      Content-Length:
      - '2800'
      Connection:
      - keep-alive
    body:
      encoding: UTF-8
      string: '{"results":[{"id":346168,"adult":false},{"id":51617,"adult":false},{"id":43741,"adult":false},{"id":205399,"adult":false},{"id":251232,"adult":false},{"id":29376,"adult":false},{"id":273404,"adult":false},{"id":13909,"adult":false},{"id":16614,"adult":false},{"id":1040,"adult":false},{"id":14445,"adult":false},{"id":93006,"adult":false},{"id":66257,"adult":false},{"id":79349,"adult":false},{"id":60938,"adult":false},{"id":346169,"adult":false},{"id":346170,"adult":false},{"id":346171,"adult":false},{"id":270990,"adult":false},{"id":32644,"adult":false},{"id":346172,"adult":false},{"id":29811,"adult":false},{"id":18214,"adult":false},{"id":21463,"adult":false},{"id":346173,"adult":false},{"id":112454,"adult":false},{"id":83384,"adult":false},{"id":63648,"adult":false},{"id":152792,"adult":false},{"id":346174,"adult":false},{"id":38780,"adult":false},{"id":250574,"adult":false},{"id":189612,"adult":false},{"id":321628,"adult":false},{"id":66241,"adult":false},{"id":308457,"adult":false},{"id":12222,"adult":false},{"id":299145,"adult":false},{"id":226857,"adult":false},{"id":346159,"adult":false},{"id":66362,"adult":false},{"id":69618,"adult":false},{"id":278016,"adult":false},{"id":215776,"adult":false},{"id":34388,"adult":false},{"id":63311,"adult":false},{"id":281021,"adult":false},{"id":63651,"adult":false},{"id":169865,"adult":false},{"id":66249,"adult":false},{"id":4251,"adult":false},{"id":4253,"adult":false},{"id":14134,"adult":false},{"id":16566,"adult":false},{"id":41252,"adult":false},{"id":212769,"adult":false},{"id":76684,"adult":false},{"id":196305,"adult":false},{"id":20914,"adult":false},{"id":24161,"adult":false},{"id":99367,"adult":false},{"id":106090,"adult":false},{"id":239573,"adult":false},{"id":127531,"adult":false},{"id":24160,"adult":false},{"id":128488,"adult":false},{"id":136527,"adult":false},{"id":139474,"adult":false},{"id":345710,"adult":false},{"id":177360,"adult":false},{"id":253707,"adult":false},{"id":19620,"adult":false},{"id":20623,"adult":false},{"id":243688,"adult":false},{"id":28805,"adult":false},{"id":31977,"adult":false},{"id":39217,"adult":false},{"id":39218,"adult":false},{"id":46379,"adult":false},{"id":56998,"adult":false},{"id":58302,"adult":false},{"id":78701,"adult":false},{"id":83903,"adult":false},{"id":86411,"adult":false},{"id":59415,"adult":false},{"id":112971,"adult":false},{"id":136688,"adult":false},{"id":139067,"adult":false},{"id":236735,"adult":false},{"id":161793,"adult":false},{"id":168025,"adult":false},{"id":225635,"adult":false},{"id":7913,"adult":false},{"id":14705,"adult":false},{"id":17501,"adult":false},{"id":19670,"adult":false},{"id":23130,"adult":false},{"id":301903,"adult":false},{"id":44827,"adult":false},{"id":67181,"adult":false}],"page":1,"total_pages":16,"total_results":1516}'
    http_version: 
  recorded_at: Fri, 26 Jun 2015 15:17:11 GMT
recorded_with: VCR 2.9.3
